Respiratory Viral Infection Forecast Reporting • ViroReportR
…
data$date <- lubridate::ymd(data$date)

vri_data_list <- map2(rep(list(data), length(diseases)),
  diseases,~ get_aggregated_data(.x, "date", .y)) %>% set_names(diseases)

head(vri_data_list)
#> $flu_a
#> # A tibble: 366 × 2
#>    date       confirm
#>    <date>       <dbl>
#>  1 2024-01-07       1
#>  2 2024-01-08       0
#>  3 2024-01-09       3
#>  4 2024-01-10       3
#>  5 2024-01-11       0
#>  6 2024-01-12       0
#>  7 2024-01-13       6
#>  8 2024-01-14       0
#>  9 2024-01-15       0
#> 10 2024-01-16       1
#> # ℹ 356 more rows
#> 
#> $rsv
#> # A tibble: 366 × 2
#>    date       confirm
#>    <date>       <dbl>
#>  1 2024-01-07       0
#>  2 2024-01-08       5
#>  3 2024-01-09       0
#>  4 2024-01-10       0
#>  5 2024-01-11       0
#>  6 2024-01-12       0
#>  7 2024-01-13       6
#>  8 2024-01-14       8
#>  9 2024-01-15       0
#> 10 2024-01-16       0
#> # ℹ 356 more rows
#> 
#> $sars_cov2
#> # A tibble: 366 × 2
#>    date       confirm
#>    <date>       <dbl>
#>  1 2024-01-07       0
#>  2 2024-01-08       2
#>  3 2024-01-09       0
#>  4 2024-01-10       4
#>  5 2024-01-11       1
#>  6 2024-01-12       1
#>  7 2024-01-13       3
#>  8 2024-01-14       4
#>  9 2024-01-15       0
#> 10 2024-01-16       2
#> # ℹ 356 more rows
…
